[gd_resource type="ShaderMaterial" load_steps=2 format=2]

[sub_resource type="Shader" id=1]

code = "shader_type spatial;
render_mode skip_vertex_transform;

uniform sampler2D texture_albedo : hint_albedo;
uniform float color_clamp;
varying vec4 VAR1;

void vertex() {
	vec4 newVec = (MODELVIEW_MATRIX * vec4(VERTEX, 1.0));
	vec4 vert = newVec;
	vert.xyz = vert.xyz / vert.w;
	vert.xyz = floor(vert.xyz * 10.0) / 10.0;
	vert.xyz = vert.xyz * newVec.w;
	NORMAL = (MODELVIEW_MATRIX * vec4(VERTEX, 0.0)).xyz;
	//NORMAL = (vec4(NORMAL, 1.0)).xyz;
	VERTEX = vert.xyz;
	
	vec4 normVec = (MODELVIEW_MATRIX * vec4(NORMAL, 1.0));
	vec4 norm = normVec;
	norm.xyz = norm.xyz / norm.w;
	norm.xyz = floor(norm.xyz * 10.0) / 10.0;
	norm.xyz = norm.xyz * normVec.w;

	VAR1 = vec4(UV * VERTEX.z, VERTEX.z, 0);
	
}

void fragment() {
	//vec2 base_uv = UV;
	//vec4 albedo_tex = texture(texture_albedo,base_uv);
	//ALBEDO = albedo_tex.rgb;
	ALBEDO = texture(texture_albedo, VAR1.xy / VAR1.z).rgb;
	ALBEDO = round(ALBEDO * color_clamp) / color_clamp;
}

void light() {
	//DIFFUSE_LIGHT = vec3(0.0);
}"

[resource]

render_priority = 0
shader = SubResource( 1 )
shader_param/color_clamp = 160.0
_sections_unfolded = [ "shader", "shader_param" ]

